{
  "Id": "Industrialization",
  "DisplayName": "Industrialization",
  "Author": "Oldark",
  "Version": "1.0",
  "Requires": [ ],
  "Enable": true,
  "AssemblyName": "Industrialization.dll",
  "EntryMethod": "Industrialization.MainPatcher.Patch",
  "Config": {}
}