{
  "Id": "QuickSave",
  "DisplayName": "QuickSave",
  "Author": "Oldark",
  "Version": "1.2.0",
  "Enable": true,
  "AssemblyName": "QuickSave.dll",
  "EntryMethod": "QuickSave.MainPatcher.Patch",
  "Game": "Subnautica",
  "VersionDependencies": {
    "SMLHelper": "2.4.0"
  }
}